single_cycle_tb.vcd
$date
	Thu Mar 13 12:57:56 2025
$end
$version
	Icarus Verilog
$end
$timescale
	1ns
$end
$scope module single_cycle_tb $end
$var reg 1 ! clk $end
$var reg 1 " reset $end
$scope module uut $end
$var wire 1 ! clk $end
$var wire 1 " reset $end
$var wire 1 # zero_top $end
$var wire 5 $ writeRegister_top [4:0] $end
$var wire 32 % writeBackData_top [31:0] $end
$var wire 1 & slow_clk $end
$var wire 32 ' selected_data [31:0] $end
$var wire 1 ( regWrite_top $end
$var wire 32 ) read_data_top [31:0] $end
$var wire 32 * pc_outplus_top [31:0] $end
$var wire 32 + out_adder_top [31:0] $end
$var wire 32 , mux_adder_out_top [31:0] $end
$var wire 32 - mergebitsJump_top [31:0] $end
$var wire 1 . memtoReg_top $end
$var wire 1 / memWrite_top $end
$var wire 1 0 memRead_top $end
$var wire 1 1 jump_top $end
$var wire 32 2 instruction_top [31:0] $end
$var wire 7 3 display4 [6:0] $end
$var wire 7 4 display3 [6:0] $end
$var wire 7 5 display2 [6:0] $end
$var wire 7 6 display1 [6:0] $end
$var wire 1 7 branch_top $end
$var wire 32 8 bits_extends_top [31:0] $end
$var wire 1 9 and_out_top $end
$var wire 3 : alu_control_top [2:0] $end
$var wire 1 ; RegDst_top $end
$var wire 32 < Rd2_top [31:0] $end
$var wire 32 = Rd1_top [31:0] $end
$var wire 32 > PCin_top [31:0] $end
$var wire 32 ? PC_top [31:0] $end
$var wire 2 @ ALUop_top [1:0] $end
$var wire 32 A ALU_result_top [31:0] $end
$var wire 32 B ALU_mux_top [31:0] $end
$var wire 1 C ALUSrc_top $end
$scope module ALU $end
$var wire 3 D alu_control [2:0] $end
$var wire 32 E B [31:0] $end
$var wire 32 F A [31:0] $end
$var reg 32 G ALU_result [31:0] $end
$var reg 1 # zero $end
$upscope $end
$scope module ALU_C $end
$var wire 6 H funct [5:0] $end
$var wire 2 I ALUop [1:0] $end
$var reg 3 J ALUControl [2:0] $end
$upscope $end
$scope module ALU_mux $end
$var wire 1 C sel1 $end
$var wire 32 K out [31:0] $end
$var wire 32 L B [31:0] $end
$var wire 32 M A [31:0] $end
$upscope $end
$scope module Adder_mux $end
$var wire 1 9 sel2 $end
$var wire 32 N out2 [31:0] $end
$var wire 32 O B2 [31:0] $end
$var wire 32 P A2 [31:0] $end
$upscope $end
$scope module Control_unit $end
$var wire 6 Q instruction [5:0] $end
$var reg 1 C ALUSrc $end
$var reg 2 R ALUop [1:0] $end
$var reg 1 7 Branch $end
$var reg 1 0 MemRead $end
$var reg 1 / MemWrite $end
$var reg 1 . MemtoReg $end
$var reg 1 ; RegDst $end
$var reg 1 ( RegWrite $end
$var reg 1 1 jump $end
$upscope $end
$scope module Inst_Memory $end
$var wire 1 ! clk $end
$var wire 32 S instruction_out [31:0] $end
$var wire 1 " reset $end
$var wire 32 T read_address [31:0] $end
$var integer 32 U k [31:0] $end
$upscope $end
$scope module PC $end
$var wire 1 ! clk $end
$var wire 1 " reset $end
$var wire 32 V pc_in [31:0] $end
$var reg 32 W pc_out [31:0] $end
$upscope $end
$scope module PC_ADDER $end
$var wire 32 X pc_out [31:0] $end
$var wire 32 Y pc_outplus [31:0] $end
$upscope $end
$scope module Reg_File $end
$var wire 32 Z Rd1 [31:0] $end
$var wire 32 [ Rd2 [31:0] $end
$var wire 5 \ Rs1 [4:0] $end
$var wire 5 ] Rs2 [4:0] $end
$var wire 1 ! clk $end
$var wire 1 ( regWrite $end
$var wire 1 " reset $end
$var wire 32 ^ writeData [31:0] $end
$var wire 5 _ wR [4:0] $end
$upscope $end
$scope module Sig_Ext $end
$var wire 16 ` instruction [15:0] $end
$var wire 32 a bits_extends [31:0] $end
$upscope $end
$scope module add $end
$var wire 32 b in1 [31:0] $end
$var wire 32 c in2 [31:0] $end
$var wire 32 d out_adder [31:0] $end
$upscope $end
$scope module and_gate $end
$var wire 1 9 and_out $end
$var wire 1 7 branch $end
$var wire 1 # zero $end
$upscope $end
$scope module clk_div $end
$var wire 1 ! clk $end
$var wire 1 " reset $end
$var reg 32 e count [31:0] $end
$var reg 1 & slow_clk $end
$upscope $end
$scope module data_mem $end
$var wire 32 f address [31:0] $end
$var wire 1 ! clk $end
$var wire 1 0 memRead $end
$var wire 1 / memWrite $end
$var wire 1 " reset $end
$var wire 32 g write_Data [31:0] $end
$var wire 32 h read_Data [31:0] $end
$upscope $end
$scope module data_memory_mux $end
$var wire 32 i A2 [31:0] $end
$var wire 32 j B2 [31:0] $end
$var wire 1 . sel2 $end
$var wire 32 k out2 [31:0] $end
$upscope $end
$scope module displays $end
$var wire 1 & clk $end
$var wire 1 " reset $end
$var wire 32 l reg_data [31:0] $end
$var reg 7 m display1 [6:0] $end
$var reg 7 n display2 [6:0] $end
$var reg 7 o display3 [6:0] $end
$var reg 7 p display4 [6:0] $end
$var reg 4 q hundreds [3:0] $end
$var reg 4 r ones [3:0] $end
$var reg 4 s tens [3:0] $end
$var reg 4 t thousands [3:0] $end
$scope function get_segment $end
$var reg 4 u num [3:0] $end
$upscope $end
$upscope $end
$scope module m1 $end
$var wire 5 v A [4:0] $end
$var wire 5 w B [4:0] $end
$var wire 1 ; sel1 $end
$var wire 5 x out [4:0] $end
$upscope $end
$scope module mjump $end
$var wire 32 y A [31:0] $end
$var wire 1 1 sel $end
$var wire 32 z out [31:0] $end
$var wire 32 { B [31:0] $end
$upscope $end
$scope module selector $end
$var wire 32 | PC [31:0] $end
$var wire 32 } reg0 [31:0] $end
$var wire 32 ~ reg1 [31:0] $end
$var wire 32 !" reg2 [31:0] $end
$var wire 32 "" reg3 [31:0] $end
$var wire 3 #" select [2:0] $end
$var reg 32 $" data_out [31:0] $end
$upscope $end
$scope module u1 $end
$var wire 26 %" in1 [25:0] $end
$var wire 4 &" in2 [3:0] $end
$var wire 32 '" out1 [31:0] $end
$upscope $end
$upscope $end
$upscope $end
$enddefinitions $end
$comment Show the parameter values. $end
$dumpall
$end
#0
$dumpvars
b0 '"
b0 &"
b0 %"
b0 $"
b11 #"
b0 ""
b0 !"
b0 ~
b0 }
b0 |
b0 {
b100 z
b100 y
b0 x
b0 w
b0 v
b0 u
b0 t
b0 s
b0 r
b0 q
b1000000 p
b1111111 o
b1111111 n
b1111111 m
b0 l
b0 k
b0 j
b0 i
b0 h
b0 g
b0 f
b0 e
b100 d
b0 c
b100 b
b0 a
b0 `
b0 _
b0 ^
b0 ]
b0 \
b0 [
b0 Z
b100 Y
b0 X
b0 W
b100 V
b1000000 U
b0 T
b0 S
b10 R
b0 Q
b100 P
b100 O
b100 N
b0 M
b0 L
b0 K
bx J
b10 I
b0 H
b0 G
b0 F
b0 E
bx D
0C
b0 B
b0 A
b10 @
b0 ?
b100 >
b0 =
b0 <
1;
bx :
09
b0 8
07
b1111111 6
b1111111 5
b1111111 4
b1000000 3
b0 2
01
00
0/
0.
b0 -
b100 ,
b100 +
b100 *
b0 )
1(
b0 '
0&
b0 %
b0 $
0#
1"
0!
$end
#5
b1111001 3
b1111001 p
b1 u
b1 r
b1 '
b1 l
b1 $"
b1 %
b1 ^
b1 k
b1 !"
b1 A
b1 G
b1 f
b1 i
b1 ""
b1000 >
b1000 V
b1000 z
b10011010000000010101000 -
b10011010000000010101000 {
b10011010000000010101000 '"
b111 :
b111 D
b111 J
b101 B
b101 E
b101 K
b1000 $
b1000 _
b1000 x
b1000 ,
b1000 N
b1000 y
b10000100110100000000101010 %"
b101010 H
b100000000101010 8
b100000000101010 L
b100000000101010 a
b100000000101010 c
b100000000101010 `
b101 <
b101 M
b101 [
b101 g
b101 ~
b10011 ]
b10 =
b10 F
b10 Z
b10 }
b10000 \
b1000 w
b10011 v
b1 e
b10000000010110000 +
b10000000010110000 O
b10000000010110000 d
b1000 *
b1000 P
b1000 Y
b1000 b
b10000100110100000000101010 2
b10000100110100000000101010 S
b100 ?
b100 T
b100 W
b100 X
b100 |
0"
1!
#10
0!
#15
17
b1100 >
b1100 V
b1100 z
b10000000 -
b10000000 {
b10000000 '"
b110 :
b110 D
b110 J
0(
0;
b1 @
b1 I
b1 R
b0 B
b0 E
b0 K
b0 $
b0 _
b0 x
b1100 ,
b1100 N
b1100 y
b1000000000000000000100000 %"
b100000 H
b100 Q
b100000 8
b100000 L
b100000 a
b100000 c
b100000 `
b0 <
b0 M
b0 [
b0 g
b0 ~
b0 ]
b1 =
b1 F
b1 Z
b1 }
b1000 \
b0 w
b0 v
b10001100 +
b10001100 O
b10001100 d
b1100 *
b1100 P
b1100 Y
b1100 b
b10001000000000000000000100000 2
b10001000000000000000000100000 S
b1000 ?
b1000 T
b1000 W
b1000 X
b1000 |
b10 e
1!
#20
0!
#25
1#
1(
1;
b11001 3
b11001 p
b100 u
b100 r
b100 '
b100 l
b100 $"
b10 :
b10 D
b10 J
b100 %
b100 ^
b100 k
b100 !"
b10000 >
b10000 V
b10000 z
b10001100010000000010000000 -
b10001100010000000010000000 {
b10001100010000000010000000 '"
07
b10 @
b10 I
b10 R
b10 B
b10 E
b10 K
b100 A
b100 G
b100 f
b100 i
b100 ""
b1000 $
b1000 _
b1000 x
b10000 ,
b10000 N
b10000 y
b1100011000100000000100000 %"
b0 Q
b100000000100000 8
b100000000100000 L
b100000000100000 a
b100000000100000 c
b100000000100000 `
b10 <
b10 M
b10 [
b10 g
b10 ~
b1100 ]
b10 =
b10 F
b10 Z
b10 }
b1100 \
b1000 w
b1100 v
b11 e
b10000000010010000 +
b10000000010010000 O
b10000000010010000 d
b10000 *
b10000 P
b10000 Y
b10000 b
b1100011000100000000100000 2
b1100011000100000000100000 S
b1100 ?
b1100 T
b1100 W
b1100 X
b1100 |
1!
#30
0!
#35
b0 3
b0 p
b1000 u
b1000 r
b1000 '
b1000 l
b1000 $"
b1000 %
b1000 ^
b1000 k
b1000 !"
b10100 >
b10100 V
b10100 z
b1000010000000010000000 -
b1000010000000010000000 {
b1000010000000010000000 '"
b100 B
b100 E
b100 K
b1000 A
b1000 G
b1000 f
b1000 i
b1000 ""
0#
b10100 ,
b10100 N
b10100 y
b1000010000100000000100000 %"
b100 <
b100 M
b100 [
b100 g
b100 ~
b1000 ]
b100 =
b100 F
b100 Z
b100 }
b1000 \
b1000 v
b10000000010010100 +
b10000000010010100 O
b10000000010010100 d
b10100 *
b10100 P
b10100 Y
b10100 b
b1000010000100000000100000 2
b1000010000100000000100000 S
b10000 ?
b10000 T
b10000 W
b10000 X
b10000 |
b100 e
1!
#40
0!
#45
b11000 >
b11000 V
b11000 z
b10110010010000010000000 -
b10110010010000010000000 {
b10110010010000010000000 '"
b1001 $
b1001 _
b1001 x
b0 B
b0 E
b0 K
b11000 ,
b11000 N
b11000 y
b1000101100100100000100000 %"
b100100000100000 8
b100100000100000 L
b100100000100000 a
b100100000100000 c
b100100000100000 `
b10110 ]
b1001 w
b10110 v
b101 e
b1000 =
b1000 F
b1000 Z
b1000 }
b0 <
b0 M
b0 [
b0 g
b0 ~
b10010000010011000 +
b10010000010011000 O
b10010000010011000 d
b11000 *
b11000 P
b11000 Y
b11000 b
b1000101100100100000100000 2
b1000101100100100000100000 S
b10100 ?
b10100 T
b10100 W
b10100 X
b10100 |
1!
#50
0!
#55
b10000 3
b10000 p
b1001 r
b111011 )
b111011 h
b111011 j
1C
1.
10
b10010 4
b10010 o
b1001 u
b101 s
b111011 '
b111011 l
b111011 $"
b111011 %
b111011 ^
b111011 k
b111011 !"
b1000 A
b1000 G
b1000 f
b1000 i
b1000 ""
b11100 >
b11100 V
b11100 z
b110001000000000000000000 -
b110001000000000000000000 {
b110001000000000000000000 '"
1(
0;
b0 @
b0 I
b0 R
b0 B
b0 E
b0 K
b10001 $
b10001 _
b10001 x
b11100 ,
b11100 N
b11100 y
b1001100010000000000000000 %"
b0 H
b100011 Q
b0 8
b0 L
b0 a
b0 c
b0 `
b1010 <
b1010 M
b1010 [
b1010 g
b1010 ~
b10001 ]
b1001 \
b0 w
b10001 v
b11100 +
b11100 O
b11100 d
b11100 *
b11100 P
b11100 Y
b11100 b
b10001101001100010000000000000000 2
b10001101001100010000000000000000 S
b11000 ?
b11000 T
b11000 W
b11000 X
b11000 |
b110 e
1!
#60
0!
#65
b10000 3
b10000 p
b1111111 5
b1111111 n
b0 q
b1001 r
b10 4
b10 o
b1001 u
b110 s
b1000101 '
b1000101 l
b1000101 $"
b1000101 %
b1000101 ^
b1000101 k
b1000101 !"
b0 )
b0 h
b0 j
b100000 >
b100000 V
b100000 z
b110001000000000000101000 -
b110001000000000000101000 {
b110001000000000000101000 '"
1(
1C
0.
00
b1010 B
b1010 E
b1010 K
b1000101 A
b1000101 G
b1000101 f
b1000101 i
b1000101 ""
b100000 ,
b100000 N
b100000 y
b10001100010000000000001010 %"
b1010 H
b1000 Q
b1010 8
b1010 L
b1010 a
b1010 c
b1010 `
b111011 =
b111011 F
b111011 Z
b111011 }
b10001 \
b111 e
b111011 <
b111011 M
b111011 [
b111011 g
b111011 ~
b1001000 +
b1001000 O
b1001000 d
b100000 *
b100000 P
b100000 Y
b100000 b
b100010001100010000000000001010 2
b100010001100010000000000001010 S
b11100 ?
b11100 T
b11100 W
b11100 X
b11100 |
1!
#70
0!
#75
1/
b0 3
b0 p
b1000 r
b1111111 4
b1111111 o
b1000 u
b0 s
b1000 '
b1000 l
b1000 $"
b100100 >
b100100 V
b100100 z
b110001000000000000000000 -
b110001000000000000000000 {
b110001000000000000000000 '"
0(
1C
b0 B
b0 E
b0 K
b1000 %
b1000 ^
b1000 k
b1000 !"
b100100 ,
b100100 N
b100100 y
b1001100010000000000000000 %"
b0 H
b101011 Q
b0 8
b0 L
b0 a
b0 c
b0 `
b1001 \
b1000 A
b1000 G
b1000 f
b1000 i
b1000 ""
b100100 +
b100100 O
b100100 d
b100100 *
b100100 P
b100100 Y
b100100 b
b10101101001100010000000000000000 2
b10101101001100010000000000000000 S
b100000 ?
b100000 T
b100000 W
b100000 X
b100000 |
b1000 =
b1000 F
b1000 Z
b1000 }
b1000101 <
b1000101 M
b1000101 [
b1000101 g
b1000101 ~
b1000 e
1!
#80
0!
#85
1(
b110000 3
b110000 p
b11 u
b11 r
b11 '
b11 l
b11 $"
b11 %
b11 ^
b11 k
b11 !"
b101000 >
b101000 V
b101000 z
b10000000000000000000100 -
b10000000000000000000100 {
b10000000000000000000100 '"
1C
0/
b1 B
b1 E
b1 K
b11 A
b11 G
b11 f
b11 i
b11 ""
b10000 $
b10000 _
b10000 x
b101000 ,
b101000 N
b101000 y
b10000100000000000000000001 %"
b1 H
b1000 Q
b1 8
b1 L
b1 a
b1 c
b1 `
b10 <
b10 M
b10 [
b10 g
b10 ~
b10000 ]
b10 =
b10 F
b10 Z
b10 }
b10000 \
b10000 v
b1001 e
b101100 +
b101100 O
b101100 d
b101000 *
b101000 P
b101000 Y
b101000 b
b100010000100000000000000000001 2
b100010000100000000000000000001 S
b100100 ?
b100100 T
b100100 W
b100100 X
b100100 |
1!
#90
0!
#95
11
b0 B
b0 E
b0 K
b1000000 3
b1000000 p
b0 u
b0 r
b0 '
b0 l
b0 $"
b100 >
b100 V
b100 z
b100 -
b100 {
b100 '"
0(
0C
b0 $
b0 _
b0 x
b0 %
b0 ^
b0 k
b0 !"
b101100 ,
b101100 N
b101100 y
b1 %"
b10 Q
b0 ]
b0 \
b0 v
b0 A
b0 G
b0 f
b0 i
b0 ""
b110000 +
b110000 O
b110000 d
b101100 *
b101100 P
b101100 Y
b101100 b
b1000000000000000000000000001 2
b1000000000000000000000000001 S
b101000 ?
b101000 T
b101000 W
b101000 X
b101000 |
b0 =
b0 F
b0 Z
b0 }
b0 <
b0 M
b0 [
b0 g
b0 ~
b1010 e
1!
#100
0!
#105
b111 :
b111 D
b111 J
1(
1;
b10 @
b10 I
b10 R
b1111001 3
b1111001 p
b1 u
b1 r
b1 '
b1 l
b1 $"
b1000 >
b1000 V
b1000 z
b1 %
b1 ^
b1 k
b1 !"
b10011010000000010101000 -
b10011010000000010101000 {
b10011010000000010101000 '"
01
b101 B
b101 E
b101 K
b1 A
b1 G
b1 f
b1 i
b1 ""
b1000 $
b1000 _
b1000 x
b1000 ,
b1000 N
b1000 y
b10000100110100000000101010 %"
b101010 H
b0 Q
b100000000101010 8
b100000000101010 L
b100000000101010 a
b100000000101010 c
b100000000101010 `
b101 <
b101 M
b101 [
b101 g
b101 ~
b10011 ]
b11 =
b11 F
b11 Z
b11 }
b10000 \
b1000 w
b10011 v
b1011 e
b10000000010110000 +
b10000000010110000 O
b10000000010110000 d
b1000 *
b1000 P
b1000 Y
b1000 b
b10000100110100000000101010 2
b10000100110100000000101010 S
b100 ?
b100 T
b100 W
b100 X
b100 |
1!
#110
0!
#115
17
b1100 >
b1100 V
b1100 z
b10000000 -
b10000000 {
b10000000 '"
b110 :
b110 D
b110 J
0(
0;
b1 @
b1 I
b1 R
b0 B
b0 E
b0 K
b0 $
b0 _
b0 x
b1100 ,
b1100 N
b1100 y
b1000000000000000000100000 %"
b100000 H
b100 Q
b100000 8
b100000 L
b100000 a
b100000 c
b100000 `
b0 <
b0 M
b0 [
b0 g
b0 ~
b0 ]
b1 =
b1 F
b1 Z
b1 }
b1000 \
b0 w
b0 v
b10001100 +
b10001100 O
b10001100 d
b1100 *
b1100 P
b1100 Y
b1100 b
b10001000000000000000000100000 2
b10001000000000000000000100000 S
b1000 ?
b1000 T
b1000 W
b1000 X
b1000 |
b1100 e
1!
#120
0!
#125
1#
1(
1;
b11001 3
b11001 p
b100 u
b100 r
b100 '
b100 l
b100 $"
b10 :
b10 D
b10 J
b100 %
b100 ^
b100 k
b100 !"
b10000 >
b10000 V
b10000 z
b10001100010000000010000000 -
b10001100010000000010000000 {
b10001100010000000010000000 '"
07
b10 @
b10 I
b10 R
b10 B
b10 E
b10 K
b100 A
b100 G
b100 f
b100 i
b100 ""
b1000 $
b1000 _
b1000 x
b10000 ,
b10000 N
b10000 y
b1100011000100000000100000 %"
b0 Q
b100000000100000 8
b100000000100000 L
b100000000100000 a
b100000000100000 c
b100000000100000 `
b10 <
b10 M
b10 [
b10 g
b10 ~
b1100 ]
b10 =
b10 F
b10 Z
b10 }
b1100 \
b1000 w
b1100 v
b1101 e
b10000000010010000 +
b10000000010010000 O
b10000000010010000 d
b10000 *
b10000 P
b10000 Y
b10000 b
b1100011000100000000100000 2
b1100011000100000000100000 S
b1100 ?
b1100 T
b1100 W
b1100 X
b1100 |
1!
#130
0!
#135
b0 3
b0 p
b1000 u
b1000 r
b1000 '
b1000 l
b1000 $"
b1000 %
b1000 ^
b1000 k
b1000 !"
b10100 >
b10100 V
b10100 z
b1000010000000010000000 -
b1000010000000010000000 {
b1000010000000010000000 '"
b100 B
b100 E
b100 K
b1000 A
b1000 G
b1000 f
b1000 i
b1000 ""
0#
b10100 ,
b10100 N
b10100 y
b1000010000100000000100000 %"
b100 <
b100 M
b100 [
b100 g
b100 ~
b1000 ]
b100 =
b100 F
b100 Z
b100 }
b1000 \
b1000 v
b10000000010010100 +
b10000000010010100 O
b10000000010010100 d
b10100 *
b10100 P
b10100 Y
b10100 b
b1000010000100000000100000 2
b1000010000100000000100000 S
b10000 ?
b10000 T
b10000 W
b10000 X
b10000 |
b1110 e
1!
#140
0!
#145
b11000 >
b11000 V
b11000 z
b10110010010000010000000 -
b10110010010000010000000 {
b10110010010000010000000 '"
b1001 $
b1001 _
b1001 x
b0 B
b0 E
b0 K
b11000 ,
b11000 N
b11000 y
b1000101100100100000100000 %"
b100100000100000 8
b100100000100000 L
b100100000100000 a
b100100000100000 c
b100100000100000 `
b10110 ]
b1001 w
b10110 v
b1111 e
b1000 =
b1000 F
b1000 Z
b1000 }
b0 <
b0 M
b0 [
b0 g
b0 ~
b10010000010011000 +
b10010000010011000 O
b10010000010011000 d
b11000 *
b11000 P
b11000 Y
b11000 b
b1000101100100100000100000 2
b1000101100100100000100000 S
b10100 ?
b10100 T
b10100 W
b10100 X
b10100 |
1!
#150
0!
#155
b0 t
b0 q
b1000101 )
b1000101 h
b1000101 j
1C
1.
10
b10000 3
b10000 p
b10 4
b10 o
b1001 u
b110 s
b1001 r
b1000101 '
b1000101 l
b1000101 $"
b1000101 %
b1000101 ^
b1000101 k
b1000101 !"
b1000 A
b1000 G
b1000 f
b1000 i
b1000 ""
b11100 >
b11100 V
b11100 z
b110001000000000000000000 -
b110001000000000000000000 {
b110001000000000000000000 '"
1(
0;
b0 @
b0 I
b0 R
b0 B
b0 E
b0 K
b10001 $
b10001 _
b10001 x
b11100 ,
b11100 N
b11100 y
b1001100010000000000000000 %"
b0 H
b100011 Q
b0 8
b0 L
b0 a
b0 c
b0 `
b1000101 <
b1000101 M
b1000101 [
b1000101 g
b1000101 ~
b10001 ]
b1001 \
b0 w
b10001 v
b11100 +
b11100 O
b11100 d
b11100 *
b11100 P
b11100 Y
b11100 b
b10001101001100010000000000000000 2
b10001101001100010000000000000000 S
b11000 ?
b11000 T
b11000 W
b11000 X
b11000 |
b10000 e
1!
#160
0!
#165
b10000 3
b10000 p
b1111111 5
b1111111 n
b0 q
b1001 r
b1111000 4
b1111000 o
b1001 u
b111 s
b1001111 '
b1001111 l
b1001111 $"
b1001111 %
b1001111 ^
b1001111 k
b1001111 !"
b0 )
b0 h
b0 j
b100000 >
b100000 V
b100000 z
b110001000000000000101000 -
b110001000000000000101000 {
b110001000000000000101000 '"
1(
1C
0.
00
b1010 B
b1010 E
b1010 K
b1001111 A
b1001111 G
b1001111 f
b1001111 i
b1001111 ""
b100000 ,
b100000 N
b100000 y
b10001100010000000000001010 %"
b1010 H
b1000 Q
b1010 8
b1010 L
b1010 a
b1010 c
b1010 `
b1000101 =
b1000101 F
b1000101 Z
b1000101 }
b10001 \
b10001 e
b1001000 +
b1001000 O
b1001000 d
b100000 *
b100000 P
b100000 Y
b100000 b
b100010001100010000000000001010 2
b100010001100010000000000001010 S
b11100 ?
b11100 T
b11100 W
b11100 X
b11100 |
1!
#170
0!
#175
1/
b0 3
b0 p
b1000 r
b1111111 4
b1111111 o
b1000 u
b0 s
b1000 '
b1000 l
b1000 $"
b100100 >
b100100 V
b100100 z
b110001000000000000000000 -
b110001000000000000000000 {
b110001000000000000000000 '"
0(
1C
b0 B
b0 E
b0 K
b1000 %
b1000 ^
b1000 k
b1000 !"
b100100 ,
b100100 N
b100100 y
b1001100010000000000000000 %"
b0 H
b101011 Q
b0 8
b0 L
b0 a
b0 c
b0 `
b1001 \
b1000 A
b1000 G
b1000 f
b1000 i
b1000 ""
b100100 +
b100100 O
b100100 d
b100100 *
b100100 P
b100100 Y
b100100 b
b10101101001100010000000000000000 2
b10101101001100010000000000000000 S
b100000 ?
b100000 T
b100000 W
b100000 X
b100000 |
b1000 =
b1000 F
b1000 Z
b1000 }
b1001111 <
b1001111 M
b1001111 [
b1001111 g
b1001111 ~
b10010 e
1!
#180
0!
#185
1(
b11001 3
b11001 p
b100 u
b100 r
b100 '
b100 l
b100 $"
b100 %
b100 ^
b100 k
b100 !"
b101000 >
b101000 V
b101000 z
b10000000000000000000100 -
b10000000000000000000100 {
b10000000000000000000100 '"
1C
0/
b1 B
b1 E
b1 K
b100 A
b100 G
b100 f
b100 i
b100 ""
b10000 $
b10000 _
b10000 x
b101000 ,
b101000 N
b101000 y
b10000100000000000000000001 %"
b1 H
b1000 Q
b1 8
b1 L
b1 a
b1 c
b1 `
b11 <
b11 M
b11 [
b11 g
b11 ~
b10000 ]
b11 =
b11 F
b11 Z
b11 }
b10000 \
b10000 v
b10011 e
b101100 +
b101100 O
b101100 d
b101000 *
b101000 P
b101000 Y
b101000 b
b100010000100000000000000000001 2
b100010000100000000000000000001 S
b100100 ?
b100100 T
b100100 W
b100100 X
b100100 |
1!
#190
0!
#195
11
b0 B
b0 E
b0 K
b1000000 3
b1000000 p
b0 u
b0 r
b0 '
b0 l
b0 $"
b100 >
b100 V
b100 z
b100 -
b100 {
b100 '"
0(
0C
b0 $
b0 _
b0 x
b0 %
b0 ^
b0 k
b0 !"
b101100 ,
b101100 N
b101100 y
b1 %"
b10 Q
b0 ]
b0 \
b0 v
b0 A
b0 G
b0 f
b0 i
b0 ""
b110000 +
b110000 O
b110000 d
b101100 *
b101100 P
b101100 Y
b101100 b
b1000000000000000000000000001 2
b1000000000000000000000000001 S
b101000 ?
b101000 T
b101000 W
b101000 X
b101000 |
b0 =
b0 F
b0 Z
b0 }
b0 <
b0 M
b0 [
b0 g
b0 ~
b10100 e
1!
#200
0!
#205
b111 :
b111 D
b111 J
1(
1;
b10 @
b10 I
b10 R
b1111001 3
b1111001 p
b1 u
b1 r
b1 '
b1 l
b1 $"
b1000 >
b1000 V
b1000 z
b1 %
b1 ^
b1 k
b1 !"
b10011010000000010101000 -
b10011010000000010101000 {
b10011010000000010101000 '"
01
b101 B
b101 E
b101 K
b1 A
b1 G
b1 f
b1 i
b1 ""
b1000 $
b1000 _
b1000 x
b1000 ,
b1000 N
b1000 y
b10000100110100000000101010 %"
b101010 H
b0 Q
b100000000101010 8
b100000000101010 L
b100000000101010 a
b100000000101010 c
b100000000101010 `
b101 <
b101 M
b101 [
b101 g
b101 ~
b10011 ]
b100 =
b100 F
b100 Z
b100 }
b10000 \
b1000 w
b10011 v
b10101 e
b10000000010110000 +
b10000000010110000 O
b10000000010110000 d
b1000 *
b1000 P
b1000 Y
b1000 b
b10000100110100000000101010 2
b10000100110100000000101010 S
b100 ?
b100 T
b100 W
b100 X
b100 |
1!
#210
0!
#215
17
b1100 >
b1100 V
b1100 z
b10000000 -
b10000000 {
b10000000 '"
b110 :
b110 D
b110 J
0(
0;
b1 @
b1 I
b1 R
b0 B
b0 E
b0 K
b0 $
b0 _
b0 x
b1100 ,
b1100 N
b1100 y
b1000000000000000000100000 %"
b100000 H
b100 Q
b100000 8
b100000 L
b100000 a
b100000 c
b100000 `
b0 <
b0 M
b0 [
b0 g
b0 ~
b0 ]
b1 =
b1 F
b1 Z
b1 }
b1000 \
b0 w
b0 v
b10001100 +
b10001100 O
b10001100 d
b1100 *
b1100 P
b1100 Y
b1100 b
b10001000000000000000000100000 2
b10001000000000000000000100000 S
b1000 ?
b1000 T
b1000 W
b1000 X
b1000 |
b10110 e
1!
#220
0!
#225
1#
1(
1;
b11001 3
b11001 p
b100 u
b100 r
b100 '
b100 l
b100 $"
b10 :
b10 D
b10 J
b100 %
b100 ^
b100 k
b100 !"
b10000 >
b10000 V
b10000 z
b10001100010000000010000000 -
b10001100010000000010000000 {
b10001100010000000010000000 '"
07
b10 @
b10 I
b10 R
b10 B
b10 E
b10 K
b100 A
b100 G
b100 f
b100 i
b100 ""
b1000 $
b1000 _
b1000 x
b10000 ,
b10000 N
b10000 y
b1100011000100000000100000 %"
b0 Q
b100000000100000 8
b100000000100000 L
b100000000100000 a
b100000000100000 c
b100000000100000 `
b10 <
b10 M
b10 [
b10 g
b10 ~
b1100 ]
b10 =
b10 F
b10 Z
b10 }
b1100 \
b1000 w
b1100 v
b10111 e
b10000000010010000 +
b10000000010010000 O
b10000000010010000 d
b10000 *
b10000 P
b10000 Y
b10000 b
b1100011000100000000100000 2
b1100011000100000000100000 S
b1100 ?
b1100 T
b1100 W
b1100 X
b1100 |
1!
#230
0!
#235
b0 3
b0 p
b1000 u
b1000 r
b1000 '
b1000 l
b1000 $"
b1000 %
b1000 ^
b1000 k
b1000 !"
b10100 >
b10100 V
b10100 z
b1000010000000010000000 -
b1000010000000010000000 {
b1000010000000010000000 '"
b100 B
b100 E
b100 K
b1000 A
b1000 G
b1000 f
b1000 i
b1000 ""
0#
b10100 ,
b10100 N
b10100 y
b1000010000100000000100000 %"
b100 <
b100 M
b100 [
b100 g
b100 ~
b1000 ]
b100 =
b100 F
b100 Z
b100 }
b1000 \
b1000 v
b10000000010010100 +
b10000000010010100 O
b10000000010010100 d
b10100 *
b10100 P
b10100 Y
b10100 b
b1000010000100000000100000 2
b1000010000100000000100000 S
b10000 ?
b10000 T
b10000 W
b10000 X
b10000 |
b11000 e
1!
#240
0!
#245
b11000 >
b11000 V
b11000 z
b10110010010000010000000 -
b10110010010000010000000 {
b10110010010000010000000 '"
b1001 $
b1001 _
b1001 x
b0 B
b0 E
b0 K
b11000 ,
b11000 N
b11000 y
b1000101100100100000100000 %"
b100100000100000 8
b100100000100000 L
b100100000100000 a
b100100000100000 c
b100100000100000 `
b10110 ]
b1001 w
b10110 v
b11001 e
b1000 =
b1000 F
b1000 Z
b1000 }
b0 <
b0 M
b0 [
b0 g
b0 ~
b10010000010011000 +
b10010000010011000 O
b10010000010011000 d
b11000 *
b11000 P
b11000 Y
b11000 b
b1000101100100100000100000 2
b1000101100100100000100000 S
b10100 ?
b10100 T
b10100 W
b10100 X
b10100 |
1!
#250
0!
#255
b0 t
b0 q
b1001111 )
b1001111 h
b1001111 j
1C
1.
10
b10000 3
b10000 p
b1001 u
b1111000 4
b1111000 o
b111 s
b1001 r
b1001111 '
b1001111 l
b1001111 $"
b1001111 %
b1001111 ^
b1001111 k
b1001111 !"
b1000 A
b1000 G
b1000 f
b1000 i
b1000 ""
b11100 >
b11100 V
b11100 z
b110001000000000000000000 -
b110001000000000000000000 {
b110001000000000000000000 '"
1(
0;
b0 @
b0 I
b0 R
b0 B
b0 E
b0 K
b10001 $
b10001 _
b10001 x
b11100 ,
b11100 N
b11100 y
b1001100010000000000000000 %"
b0 H
b100011 Q
b0 8
b0 L
b0 a
b0 c
b0 `
b1001111 <
b1001111 M
b1001111 [
b1001111 g
b1001111 ~
b10001 ]
b1001 \
b0 w
b10001 v
b11100 +
b11100 O
b11100 d
b11100 *
b11100 P
b11100 Y
b11100 b
b10001101001100010000000000000000 2
b10001101001100010000000000000000 S
b11000 ?
b11000 T
b11000 W
b11000 X
b11000 |
b11010 e
1!
#260
0!
