single_cycle_tb.vcd
$date
	Tue Jan 07 23:28:00 2025
$end
$version
	Icarus Verilog
$end
$timescale
	1ns
$end
$scope module single_cycle_tb $end
$var reg 1 ! clk $end
$var reg 1 " reset $end
$scope module uut $end
$var wire 1 ! clk $end
$var wire 1 " reset $end
$var wire 1 # zero_top $end
$var wire 5 $ writeRegister_top [4:0] $end
$var wire 32 % writeBackData_top [31:0] $end
$var wire 1 & regWrite_top $end
$var wire 32 ' read_data_top [31:0] $end
$var wire 32 ( pc_outplus_top [31:0] $end
$var wire 32 ) out_adder_top [31:0] $end
$var wire 32 * mux_adder_out_top [31:0] $end
$var wire 32 + mergebitsJump_top [31:0] $end
$var wire 1 , memtoReg_top $end
$var wire 1 - memWrite_top $end
$var wire 1 . memRead_top $end
$var wire 1 / jump_top $end
$var wire 32 0 instruction_top [31:0] $end
$var wire 1 1 branch_top $end
$var wire 32 2 bits_extends_top [31:0] $end
$var wire 1 3 and_out_top $end
$var wire 3 4 alu_control_top [2:0] $end
$var wire 1 5 RegDst_top $end
$var wire 32 6 Rd2_top [31:0] $end
$var wire 32 7 Rd1_top [31:0] $end
$var wire 32 8 PCin_top [31:0] $end
$var wire 32 9 PC_top [31:0] $end
$var wire 2 : ALUop_top [1:0] $end
$var wire 32 ; ALU_result_top [31:0] $end
$var wire 32 < ALU_mux_top [31:0] $end
$var wire 1 = ALUSrc_top $end
$scope module ALU $end
$var wire 3 > alu_control [2:0] $end
$var wire 32 ? B [31:0] $end
$var wire 32 @ A [31:0] $end
$var reg 32 A ALU_result [31:0] $end
$var reg 1 # zero $end
$upscope $end
$scope module ALU_C $end
$var wire 6 B funct [5:0] $end
$var wire 2 C ALUop [1:0] $end
$var reg 3 D ALUControl [2:0] $end
$upscope $end
$scope module ALU_mux $end
$var wire 1 = sel1 $end
$var wire 32 E out [31:0] $end
$var wire 32 F B [31:0] $end
$var wire 32 G A [31:0] $end
$upscope $end
$scope module Adder_mux $end
$var wire 1 3 sel2 $end
$var wire 32 H out2 [31:0] $end
$var wire 32 I B2 [31:0] $end
$var wire 32 J A2 [31:0] $end
$upscope $end
$scope module Control_unit $end
$var wire 6 K instruction [5:0] $end
$var reg 1 = ALUSrc $end
$var reg 2 L ALUop [1:0] $end
$var reg 1 1 Branch $end
$var reg 1 . MemRead $end
$var reg 1 - MemWrite $end
$var reg 1 , MemtoReg $end
$var reg 1 5 RegDst $end
$var reg 1 & RegWrite $end
$var reg 1 / jump $end
$upscope $end
$scope module Inst_Memory $end
$var wire 1 ! clk $end
$var wire 32 M instruction_out [31:0] $end
$var wire 1 " reset $end
$var wire 32 N read_address [31:0] $end
$var integer 32 O k [31:0] $end
$upscope $end
$scope module PC $end
$var wire 1 ! clk $end
$var wire 1 " reset $end
$var wire 32 P pc_in [31:0] $end
$var reg 32 Q pc_out [31:0] $end
$upscope $end
$scope module PC_ADDER $end
$var wire 32 R pc_out [31:0] $end
$var wire 32 S pc_outplus [31:0] $end
$upscope $end
$scope module Reg_File $end
$var wire 32 T Rd1 [31:0] $end
$var wire 32 U Rd2 [31:0] $end
$var wire 5 V Rs1 [4:0] $end
$var wire 5 W Rs2 [4:0] $end
$var wire 1 ! clk $end
$var wire 1 & regWrite $end
$var wire 1 " reset $end
$var wire 32 X writeData [31:0] $end
$var wire 5 Y wR [4:0] $end
$upscope $end
$scope module Sig_Ext $end
$var wire 16 Z instruction [15:0] $end
$var wire 32 [ bits_extends [31:0] $end
$upscope $end
$scope module add $end
$var wire 32 \ in1 [31:0] $end
$var wire 32 ] in2 [31:0] $end
$var wire 32 ^ out_adder [31:0] $end
$upscope $end
$scope module and_gate $end
$var wire 1 3 and_out $end
$var wire 1 1 branch $end
$var wire 1 # zero $end
$upscope $end
$scope module data_mem $end
$var wire 32 _ address [31:0] $end
$var wire 1 ! clk $end
$var wire 1 . memRead $end
$var wire 1 - memWrite $end
$var wire 1 " reset $end
$var wire 32 ` write_Data [31:0] $end
$var wire 32 a read_Data [31:0] $end
$upscope $end
$scope module data_memory_mux $end
$var wire 32 b A2 [31:0] $end
$var wire 32 c B2 [31:0] $end
$var wire 1 , sel2 $end
$var wire 32 d out2 [31:0] $end
$upscope $end
$scope module m1 $end
$var wire 5 e A [4:0] $end
$var wire 5 f B [4:0] $end
$var wire 1 5 sel1 $end
$var wire 5 g out [4:0] $end
$upscope $end
$scope module mjump $end
$var wire 32 h A [31:0] $end
$var wire 1 / sel $end
$var wire 32 i out [31:0] $end
$var wire 32 j B [31:0] $end
$upscope $end
$scope module u1 $end
$var wire 26 k in1 [25:0] $end
$var wire 4 l in2 [3:0] $end
$var wire 32 m out1 [31:0] $end
$upscope $end
$upscope $end
$upscope $end
$enddefinitions $end
$comment Show the parameter values. $end
$dumpall
$end
#0
$dumpvars
b0 m
b0 l
b0 k
b0 j
b100 i
b100 h
b0 g
b0 f
b0 e
b0 d
b0 c
b0 b
b0 a
b0 `
b0 _
b100 ^
b0 ]
b100 \
b0 [
b0 Z
b0 Y
b0 X
b0 W
b0 V
b0 U
b0 T
b100 S
b0 R
b0 Q
b100 P
b1000000 O
b0 N
b0 M
b10 L
b0 K
b100 J
b100 I
b100 H
b0 G
b0 F
b0 E
bx D
b10 C
b0 B
b0 A
b0 @
b0 ?
bx >
0=
b0 <
b0 ;
b10 :
b0 9
b100 8
b0 7
b0 6
15
bx 4
03
b0 2
01
b0 0
0/
0.
0-
0,
b0 +
b100 *
b100 )
b100 (
b0 '
1&
b0 %
b0 $
0#
1"
0!
$end
#5
b1000 8
b1000 P
b1000 i
b1110011010010000010000000 +
b1110011010010000010000000 j
b1110011010010000010000000 m
b10 4
b10 >
b10 D
b1001 $
b1001 Y
b1001 g
b1000 *
b1000 H
b1000 h
b10011100110100100000100000 k
b100000 B
b100100000100000 2
b100100000100000 F
b100100000100000 [
b100100000100000 ]
b100100000100000 Z
b10011 W
b10011 V
b1001 f
b10011 e
b10010000010001000 )
b10010000010001000 I
b10010000010001000 ^
b1000 (
b1000 J
b1000 S
b1000 \
b10011100110100100000100000 0
b10011100110100100000100000 M
b100 9
b100 N
b100 Q
b100 R
0"
1!
#10
0!
#15
b1100 8
b1100 P
b1100 i
b101001010010000010000000 +
b101001010010000010000000 j
b101001010010000010000000 m
b1100 *
b1100 H
b1100 h
b1001010010100100000100000 k
b1001 W
b1001 V
b1001 e
b10010000010001100 )
b10010000010001100 I
b10010000010001100 ^
b1100 (
b1100 J
b1100 S
b1100 \
b1001010010100100000100000 0
b1001010010100100000100000 M
b1000 9
b1000 N
b1000 Q
b1000 R
1!
#20
0!
#25
b1011010 %
b1011010 X
b1011010 d
b1011010 ;
b1011010 A
b1011010 _
b1011010 b
b10000 8
b10000 P
b10000 i
b110110010010000010000000 +
b110110010010000010000000 j
b110110010010000010000000 m
b1011010 <
b1011010 ?
b1011010 E
b10000 *
b10000 H
b10000 h
b1001101100100100000100000 k
b1011010 6
b1011010 G
b1011010 U
b1011010 `
b10110 W
b10110 e
b10010000010010000 )
b10010000010010000 I
b10010000010010000 ^
b10000 (
b10000 J
b10000 S
b10000 \
b1001101100100100000100000 0
b1001101100100100000100000 M
b1100 9
b1100 N
b1100 Q
b1100 R
1!
#30
0!
#35
bx '
bx a
bx c
1=
1,
1.
b10100 8
b10100 P
b10100 i
b101000000000000000000000 +
b101000000000000000000000 j
b101000000000000000000000 m
1&
05
b0 :
b0 C
b0 L
b0 <
b0 ?
b0 E
b1000 $
b1000 Y
b1000 g
bx %
bx X
bx d
b10100 *
b10100 H
b10100 h
b1001010000000000000000000 k
b0 B
b100011 K
b0 2
b0 F
b0 [
b0 ]
b0 Z
b10 6
b10 G
b10 U
b10 `
b1000 W
b0 f
b1000 e
b1011010 ;
b1011010 A
b1011010 _
b1011010 b
b10100 )
b10100 I
b10100 ^
b10100 (
b10100 J
b10100 S
b10100 \
b10001101001010000000000000000000 0
b10001101001010000000000000000000 M
b10000 9
b10000 N
b10000 Q
b10000 R
b1011010 7
b1011010 @
b1011010 T
1!
#40
0!
#45
b0 '
b0 a
b0 c
b11000 8
b11000 P
b11000 i
b10101000000000000010000 +
b10101000000000000010000 j
b10101000000000000010000 m
0&
0=
0,
0.
b100 <
b100 ?
b100 E
bx ;
bx A
bx _
bx b
b10101 $
b10101 Y
b10101 g
b11000 *
b11000 H
b11000 h
b1000101010000000000000100 k
b100 B
b101 K
b100 2
b100 F
b100 [
b100 ]
b100 Z
b10101 W
bx 7
bx @
bx T
b1000 V
b10101 e
b100 6
b100 G
b100 U
b100 `
b101000 )
b101000 I
b101000 ^
b11000 (
b11000 J
b11000 S
b11000 \
b10101000101010000000000000100 0
b10101000101010000000000000100 M
b10100 9
b10100 N
b10100 Q
b10100 R
1!
#50
0!
#55
1&
1=
b1 %
b1 X
b1 d
b11100 8
b11100 P
b11100 i
b1110011000000000000000100 +
b1110011000000000000000100 j
b1110011000000000000000100 m
b1 <
b1 ?
b1 E
b1 ;
b1 A
b1 _
b1 b
b10011 $
b10011 Y
b10011 g
b11100 *
b11100 H
b11100 h
b10011100110000000000000001 k
b1 B
b1000 K
b1 2
b1 F
b1 [
b1 ]
b1 Z
b0 6
b0 G
b0 U
b0 `
b10011 W
b0 7
b0 @
b0 T
b10011 V
b10011 e
b100000 )
b100000 I
b100000 ^
b11100 (
b11100 J
b11100 S
b11100 \
b100010011100110000000000000001 0
b100010011100110000000000000001 M
b11000 9
b11000 N
b11000 Q
b11000 R
1!
#60
0!
#65
1/
b0 %
b0 X
b0 d
b0 ;
b0 A
b0 _
b0 b
b0 <
b0 ?
b0 E
b100 8
b100 P
b100 i
b100 +
b100 j
b100 m
0&
0=
b0 $
b0 Y
b0 g
b100000 *
b100000 H
b100000 h
b1 k
b10 K
b0 W
b0 V
b0 e
b0 7
b0 @
b0 T
b0 6
b0 G
b0 U
b0 `
b100100 )
b100100 I
b100100 ^
b100000 (
b100000 J
b100000 S
b100000 \
b1000000000000000000000000001 0
b1000000000000000000000000001 M
b11100 9
b11100 N
b11100 Q
b11100 R
1!
#70
0!
#75
1&
15
b10 :
b10 C
b10 L
b1000 8
b1000 P
b1000 i
b10 %
b10 X
b10 d
b1110011010010000010000000 +
b1110011010010000010000000 j
b1110011010010000010000000 m
0/
b1 <
b1 ?
b1 E
b10 ;
b10 A
b10 _
b10 b
b1001 $
b1001 Y
b1001 g
b1000 *
b1000 H
b1000 h
b10011100110100100000100000 k
b100000 B
b0 K
b100100000100000 2
b100100000100000 F
b100100000100000 [
b100100000100000 ]
b100100000100000 Z
b1 6
b1 G
b1 U
b1 `
b10011 W
b1 7
b1 @
b1 T
b10011 V
b1001 f
b10011 e
b10010000010001000 )
b10010000010001000 I
b10010000010001000 ^
b1000 (
b1000 J
b1000 S
b1000 \
b10011100110100100000100000 0
b10011100110100100000100000 M
b100 9
b100 N
b100 Q
b100 R
1!
#80
0!
#85
b100 %
b100 X
b100 d
b1100 8
b1100 P
b1100 i
b101001010010000010000000 +
b101001010010000010000000 j
b101001010010000010000000 m
b10 <
b10 ?
b10 E
b100 ;
b100 A
b100 _
b100 b
b1100 *
b1100 H
b1100 h
b1001010010100100000100000 k
b10 6
b10 G
b10 U
b10 `
b1001 W
b10 7
b10 @
b10 T
b1001 V
b1001 e
b10010000010001100 )
b10010000010001100 I
b10010000010001100 ^
b1100 (
b1100 J
b1100 S
b1100 \
b1001010010100100000100000 0
b1001010010100100000100000 M
b1000 9
b1000 N
b1000 Q
b1000 R
1!
#90
0!
#95
b10000 8
b10000 P
b10000 i
b110110010010000010000000 +
b110110010010000010000000 j
b110110010010000010000000 m
b1011110 %
b1011110 X
b1011110 d
b10000 *
b10000 H
b10000 h
b1001101100100100000100000 k
b10110 W
b10110 e
b1011110 ;
b1011110 A
b1011110 _
b1011110 b
b1011010 <
b1011010 ?
b1011010 E
b10010000010010000 )
b10010000010010000 I
b10010000010010000 ^
b10000 (
b10000 J
b10000 S
b10000 \
b1001101100100100000100000 0
b1001101100100100000100000 M
b1100 9
b1100 N
b1100 Q
b1100 R
b100 7
b100 @
b100 T
b1011010 6
b1011010 G
b1011010 U
b1011010 `
1!
#100
0!
#105
bx '
bx a
bx c
1=
1,
1.
bx %
bx X
bx d
b10100 8
b10100 P
b10100 i
b101000000000000000000000 +
b101000000000000000000000 j
b101000000000000000000000 m
1&
05
b0 :
b0 C
b0 L
b0 <
b0 ?
b0 E
b1000 $
b1000 Y
b1000 g
b1011110 ;
b1011110 A
b1011110 _
b1011110 b
b10100 *
b10100 H
b10100 h
b1001010000000000000000000 k
b0 B
b100011 K
b0 2
b0 F
b0 [
b0 ]
b0 Z
bx 6
bx G
bx U
bx `
b1000 W
b0 f
b1000 e
b1011110 7
b1011110 @
b1011110 T
b10100 )
b10100 I
b10100 ^
b10100 (
b10100 J
b10100 S
b10100 \
b10001101001010000000000000000000 0
b10001101001010000000000000000000 M
b10000 9
b10000 N
b10000 Q
b10000 R
1!
#110
0!
#115
b0 '
b0 a
b0 c
b11000 8
b11000 P
b11000 i
b10101000000000000010000 +
b10101000000000000010000 j
b10101000000000000010000 m
0&
0=
0,
0.
b100 <
b100 ?
b100 E
bx ;
bx A
bx _
bx b
b10101 $
b10101 Y
b10101 g
b11000 *
b11000 H
b11000 h
b1000101010000000000000100 k
b100 B
b101 K
b100 2
b100 F
b100 [
b100 ]
b100 Z
b100 6
b100 G
b100 U
b100 `
b10101 W
bx 7
bx @
bx T
b1000 V
b10101 e
b101000 )
b101000 I
b101000 ^
b11000 (
b11000 J
b11000 S
b11000 \
b10101000101010000000000000100 0
b10101000101010000000000000100 M
b10100 9
b10100 N
b10100 Q
b10100 R
1!
#120
0!
#125
1&
1=
b10 %
b10 X
b10 d
b11100 8
b11100 P
b11100 i
b1110011000000000000000100 +
b1110011000000000000000100 j
b1110011000000000000000100 m
b1 <
b1 ?
b1 E
b10 ;
b10 A
b10 _
b10 b
b10011 $
b10011 Y
b10011 g
b11100 *
b11100 H
b11100 h
b10011100110000000000000001 k
b1 B
b1000 K
b1 2
b1 F
b1 [
b1 ]
b1 Z
b1 6
b1 G
b1 U
b1 `
b10011 W
b1 7
b1 @
b1 T
b10011 V
b10011 e
b100000 )
b100000 I
b100000 ^
b11100 (
b11100 J
b11100 S
b11100 \
b100010011100110000000000000001 0
b100010011100110000000000000001 M
b11000 9
b11000 N
b11000 Q
b11000 R
1!
#130
0!
#135
1/
b0 <
b0 ?
b0 E
b100 8
b100 P
b100 i
b100 +
b100 j
b100 m
0&
0=
b0 $
b0 Y
b0 g
b0 %
b0 X
b0 d
b100000 *
b100000 H
b100000 h
b1 k
b10 K
b0 W
b0 V
b0 e
b0 ;
b0 A
b0 _
b0 b
b100100 )
b100100 I
b100100 ^
b100000 (
b100000 J
b100000 S
b100000 \
b1000000000000000000000000001 0
b1000000000000000000000000001 M
b11100 9
b11100 N
b11100 Q
b11100 R
b0 7
b0 @
b0 T
b0 6
b0 G
b0 U
b0 `
1!
#140
0!
#145
1&
15
b10 :
b10 C
b10 L
b1000 8
b1000 P
b1000 i
b100 %
b100 X
b100 d
b1110011010010000010000000 +
b1110011010010000010000000 j
b1110011010010000010000000 m
0/
b10 <
b10 ?
b10 E
b100 ;
b100 A
b100 _
b100 b
b1001 $
b1001 Y
b1001 g
b1000 *
b1000 H
b1000 h
b10011100110100100000100000 k
b100000 B
b0 K
b100100000100000 2
b100100000100000 F
b100100000100000 [
b100100000100000 ]
b100100000100000 Z
b10 6
b10 G
b10 U
b10 `
b10011 W
b10 7
b10 @
b10 T
b10011 V
b1001 f
b10011 e
b10010000010001000 )
b10010000010001000 I
b10010000010001000 ^
b1000 (
b1000 J
b1000 S
b1000 \
b10011100110100100000100000 0
b10011100110100100000100000 M
b100 9
b100 N
b100 Q
b100 R
1!
#150
0!
#155
b1000 %
b1000 X
b1000 d
b1100 8
b1100 P
b1100 i
b101001010010000010000000 +
b101001010010000010000000 j
b101001010010000010000000 m
b100 <
b100 ?
b100 E
b1000 ;
b1000 A
b1000 _
b1000 b
b1100 *
b1100 H
b1100 h
b1001010010100100000100000 k
b100 6
b100 G
b100 U
b100 `
b1001 W
b100 7
b100 @
b100 T
b1001 V
b1001 e
b10010000010001100 )
b10010000010001100 I
b10010000010001100 ^
b1100 (
b1100 J
b1100 S
b1100 \
b1001010010100100000100000 0
b1001010010100100000100000 M
b1000 9
b1000 N
b1000 Q
b1000 R
1!
#160
0!
#165
b1100010 %
b1100010 X
b1100010 d
b10000 8
b10000 P
b10000 i
b110110010010000010000000 +
b110110010010000010000000 j
b110110010010000010000000 m
b1100010 ;
b1100010 A
b1100010 _
b1100010 b
b1011010 <
b1011010 ?
b1011010 E
b10000 *
b10000 H
b10000 h
b1001101100100100000100000 k
b10110 W
b10110 e
b1000 7
b1000 @
b1000 T
b1011010 6
b1011010 G
b1011010 U
b1011010 `
b10010000010010000 )
b10010000010010000 I
b10010000010010000 ^
b10000 (
b10000 J
b10000 S
b10000 \
b1001101100100100000100000 0
b1001101100100100000100000 M
b1100 9
b1100 N
b1100 Q
b1100 R
1!
#170
0!
#175
bx '
bx a
bx c
1=
1,
1.
b10100 8
b10100 P
b10100 i
b101000000000000000000000 +
b101000000000000000000000 j
b101000000000000000000000 m
1&
05
b0 :
b0 C
b0 L
b0 <
b0 ?
b0 E
b1000 $
b1000 Y
b1000 g
bx %
bx X
bx d
b10100 *
b10100 H
b10100 h
b1001010000000000000000000 k
b0 B
b100011 K
b0 2
b0 F
b0 [
b0 ]
b0 Z
bx 6
bx G
bx U
bx `
b1000 W
b0 f
b1000 e
b1100010 ;
b1100010 A
b1100010 _
b1100010 b
b10100 )
b10100 I
b10100 ^
b10100 (
b10100 J
b10100 S
b10100 \
b10001101001010000000000000000000 0
b10001101001010000000000000000000 M
b10000 9
b10000 N
b10000 Q
b10000 R
b1100010 7
b1100010 @
b1100010 T
1!
#180
0!
#185
b0 '
b0 a
b0 c
b11000 8
b11000 P
b11000 i
b10101000000000000010000 +
b10101000000000000010000 j
b10101000000000000010000 m
0&
0=
0,
0.
b100 <
b100 ?
b100 E
bx ;
bx A
bx _
bx b
b10101 $
b10101 Y
b10101 g
b11000 *
b11000 H
b11000 h
b1000101010000000000000100 k
b100 B
b101 K
b100 2
b100 F
b100 [
b100 ]
b100 Z
b100 6
b100 G
b100 U
b100 `
b10101 W
bx 7
bx @
bx T
b1000 V
b10101 e
b101000 )
b101000 I
b101000 ^
b11000 (
b11000 J
b11000 S
b11000 \
b10101000101010000000000000100 0
b10101000101010000000000000100 M
b10100 9
b10100 N
b10100 Q
b10100 R
1!
#190
0!
#195
1&
1=
b11 %
b11 X
b11 d
b11100 8
b11100 P
b11100 i
b1110011000000000000000100 +
b1110011000000000000000100 j
b1110011000000000000000100 m
b1 <
b1 ?
b1 E
b11 ;
b11 A
b11 _
b11 b
b10011 $
b10011 Y
b10011 g
b11100 *
b11100 H
b11100 h
b10011100110000000000000001 k
b1 B
b1000 K
b1 2
b1 F
b1 [
b1 ]
b1 Z
b10 6
b10 G
b10 U
b10 `
b10011 W
b10 7
b10 @
b10 T
b10011 V
b10011 e
b100000 )
b100000 I
b100000 ^
b11100 (
b11100 J
b11100 S
b11100 \
b100010011100110000000000000001 0
b100010011100110000000000000001 M
b11000 9
b11000 N
b11000 Q
b11000 R
1!
#200
0!
#205
1/
b0 <
b0 ?
b0 E
b0 %
b0 X
b0 d
b100 8
b100 P
b100 i
b100 +
b100 j
b100 m
0&
0=
b0 $
b0 Y
b0 g
b0 ;
b0 A
b0 _
b0 b
b100000 *
b100000 H
b100000 h
b1 k
b10 K
b0 W
b0 V
b0 e
b0 7
b0 @
b0 T
b0 6
b0 G
b0 U
b0 `
b100100 )
b100100 I
b100100 ^
b100000 (
b100000 J
b100000 S
b100000 \
b1000000000000000000000000001 0
b1000000000000000000000000001 M
b11100 9
b11100 N
b11100 Q
b11100 R
1!
#210
0!
#215
1&
15
b10 :
b10 C
b10 L
b1000 8
b1000 P
b1000 i
b110 %
b110 X
b110 d
b1110011010010000010000000 +
b1110011010010000010000000 j
b1110011010010000010000000 m
0/
b11 <
b11 ?
b11 E
b110 ;
b110 A
b110 _
b110 b
b1001 $
b1001 Y
b1001 g
b1000 *
b1000 H
b1000 h
b10011100110100100000100000 k
b100000 B
b0 K
b100100000100000 2
b100100000100000 F
b100100000100000 [
b100100000100000 ]
b100100000100000 Z
b11 6
b11 G
b11 U
b11 `
b10011 W
b11 7
b11 @
b11 T
b10011 V
b1001 f
b10011 e
b10010000010001000 )
b10010000010001000 I
b10010000010001000 ^
b1000 (
b1000 J
b1000 S
b1000 \
b10011100110100100000100000 0
b10011100110100100000100000 M
b100 9
b100 N
b100 Q
b100 R
1!
#220
0!
#225
b1100 %
b1100 X
b1100 d
b1100 8
b1100 P
b1100 i
b101001010010000010000000 +
b101001010010000010000000 j
b101001010010000010000000 m
b110 <
b110 ?
b110 E
b1100 ;
b1100 A
b1100 _
b1100 b
b1100 *
b1100 H
b1100 h
b1001010010100100000100000 k
b110 6
b110 G
b110 U
b110 `
b1001 W
b110 7
b110 @
b110 T
b1001 V
b1001 e
b10010000010001100 )
b10010000010001100 I
b10010000010001100 ^
b1100 (
b1100 J
b1100 S
b1100 \
b1001010010100100000100000 0
b1001010010100100000100000 M
b1000 9
b1000 N
b1000 Q
b1000 R
1!
#230
0!
#235
b10000 8
b10000 P
b10000 i
b110110010010000010000000 +
b110110010010000010000000 j
b110110010010000010000000 m
b1100110 %
b1100110 X
b1100110 d
b10000 *
b10000 H
b10000 h
b1001101100100100000100000 k
b10110 W
b10110 e
b1100110 ;
b1100110 A
b1100110 _
b1100110 b
b1011010 <
b1011010 ?
b1011010 E
b10010000010010000 )
b10010000010010000 I
b10010000010010000 ^
b10000 (
b10000 J
b10000 S
b10000 \
b1001101100100100000100000 0
b1001101100100100000100000 M
b1100 9
b1100 N
b1100 Q
b1100 R
b1100 7
b1100 @
b1100 T
b1011010 6
b1011010 G
b1011010 U
b1011010 `
1!
#240
0!
#245
bx '
bx a
bx c
1=
1,
1.
bx %
bx X
bx d
b10100 8
b10100 P
b10100 i
b101000000000000000000000 +
b101000000000000000000000 j
b101000000000000000000000 m
1&
05
b0 :
b0 C
b0 L
b0 <
b0 ?
b0 E
b1000 $
b1000 Y
b1000 g
b1100110 ;
b1100110 A
b1100110 _
b1100110 b
b10100 *
b10100 H
b10100 h
b1001010000000000000000000 k
b0 B
b100011 K
b0 2
b0 F
b0 [
b0 ]
b0 Z
bx 6
bx G
bx U
bx `
b1000 W
b0 f
b1000 e
b1100110 7
b1100110 @
b1100110 T
b10100 )
b10100 I
b10100 ^
b10100 (
b10100 J
b10100 S
b10100 \
b10001101001010000000000000000000 0
b10001101001010000000000000000000 M
b10000 9
b10000 N
b10000 Q
b10000 R
1!
#250
0!
#255
b0 '
b0 a
b0 c
b11000 8
b11000 P
b11000 i
b10101000000000000010000 +
b10101000000000000010000 j
b10101000000000000010000 m
0&
0=
0,
0.
b100 <
b100 ?
b100 E
bx ;
bx A
bx _
bx b
b10101 $
b10101 Y
b10101 g
b11000 *
b11000 H
b11000 h
b1000101010000000000000100 k
b100 B
b101 K
b100 2
b100 F
b100 [
b100 ]
b100 Z
b100 6
b100 G
b100 U
b100 `
b10101 W
bx 7
bx @
bx T
b1000 V
b10101 e
b101000 )
b101000 I
b101000 ^
b11000 (
b11000 J
b11000 S
b11000 \
b10101000101010000000000000100 0
b10101000101010000000000000100 M
b10100 9
b10100 N
b10100 Q
b10100 R
1!
#260
0!
#265
1&
1=
b100 %
b100 X
b100 d
b11100 8
b11100 P
b11100 i
b1110011000000000000000100 +
b1110011000000000000000100 j
b1110011000000000000000100 m
b1 <
b1 ?
b1 E
b100 ;
b100 A
b100 _
b100 b
b10011 $
b10011 Y
b10011 g
b11100 *
b11100 H
b11100 h
b10011100110000000000000001 k
b1 B
b1000 K
b1 2
b1 F
b1 [
b1 ]
b1 Z
b11 6
b11 G
b11 U
b11 `
b10011 W
b11 7
b11 @
b11 T
b10011 V
b10011 e
b100000 )
b100000 I
b100000 ^
b11100 (
b11100 J
b11100 S
b11100 \
b100010011100110000000000000001 0
b100010011100110000000000000001 M
b11000 9
b11000 N
b11000 Q
b11000 R
1!
#270
0!
#275
1/
b0 <
b0 ?
b0 E
b100 8
b100 P
b100 i
b100 +
b100 j
b100 m
0&
0=
b0 $
b0 Y
b0 g
b0 %
b0 X
b0 d
b100000 *
b100000 H
b100000 h
b1 k
b10 K
b0 W
b0 V
b0 e
b0 ;
b0 A
b0 _
b0 b
b100100 )
b100100 I
b100100 ^
b100000 (
b100000 J
b100000 S
b100000 \
b1000000000000000000000000001 0
b1000000000000000000000000001 M
b11100 9
b11100 N
b11100 Q
b11100 R
b0 7
b0 @
b0 T
b0 6
b0 G
b0 U
b0 `
1!
#280
0!
#285
1&
15
b10 :
b10 C
b10 L
b1000 8
b1000 P
b1000 i
b1000 %
b1000 X
b1000 d
b1110011010010000010000000 +
b1110011010010000010000000 j
b1110011010010000010000000 m
0/
b100 <
b100 ?
b100 E
b1000 ;
b1000 A
b1000 _
b1000 b
b1001 $
b1001 Y
b1001 g
b1000 *
b1000 H
b1000 h
b10011100110100100000100000 k
b100000 B
b0 K
b100100000100000 2
b100100000100000 F
b100100000100000 [
b100100000100000 ]
b100100000100000 Z
b100 6
b100 G
b100 U
b100 `
b10011 W
b100 7
b100 @
b100 T
b10011 V
b1001 f
b10011 e
b10010000010001000 )
b10010000010001000 I
b10010000010001000 ^
b1000 (
b1000 J
b1000 S
b1000 \
b10011100110100100000100000 0
b10011100110100100000100000 M
b100 9
b100 N
b100 Q
b100 R
1!
#290
0!
#295
b10000 %
b10000 X
b10000 d
b1100 8
b1100 P
b1100 i
b101001010010000010000000 +
b101001010010000010000000 j
b101001010010000010000000 m
b1000 <
b1000 ?
b1000 E
b10000 ;
b10000 A
b10000 _
b10000 b
b1100 *
b1100 H
b1100 h
b1001010010100100000100000 k
b1000 6
b1000 G
b1000 U
b1000 `
b1001 W
b1000 7
b1000 @
b1000 T
b1001 V
b1001 e
b10010000010001100 )
b10010000010001100 I
b10010000010001100 ^
b1100 (
b1100 J
b1100 S
b1100 \
b1001010010100100000100000 0
b1001010010100100000100000 M
b1000 9
b1000 N
b1000 Q
b1000 R
1!
#300
0!
#305
b1101010 %
b1101010 X
b1101010 d
b10000 8
b10000 P
b10000 i
b110110010010000010000000 +
b110110010010000010000000 j
b110110010010000010000000 m
b1101010 ;
b1101010 A
b1101010 _
b1101010 b
b1011010 <
b1011010 ?
b1011010 E
b10000 *
b10000 H
b10000 h
b1001101100100100000100000 k
b10110 W
b10110 e
b10000 7
b10000 @
b10000 T
b1011010 6
b1011010 G
b1011010 U
b1011010 `
b10010000010010000 )
b10010000010010000 I
b10010000010010000 ^
b10000 (
b10000 J
b10000 S
b10000 \
b1001101100100100000100000 0
b1001101100100100000100000 M
b1100 9
b1100 N
b1100 Q
b1100 R
1!
#310
0!
#315
bx '
bx a
bx c
1=
1,
1.
b10100 8
b10100 P
b10100 i
b101000000000000000000000 +
b101000000000000000000000 j
b101000000000000000000000 m
1&
05
b0 :
b0 C
b0 L
b0 <
b0 ?
b0 E
b1000 $
b1000 Y
b1000 g
bx %
bx X
bx d
b10100 *
b10100 H
b10100 h
b1001010000000000000000000 k
b0 B
b100011 K
b0 2
b0 F
b0 [
b0 ]
b0 Z
bx 6
bx G
bx U
bx `
b1000 W
b0 f
b1000 e
b1101010 ;
b1101010 A
b1101010 _
b1101010 b
b10100 )
b10100 I
b10100 ^
b10100 (
b10100 J
b10100 S
b10100 \
b10001101001010000000000000000000 0
b10001101001010000000000000000000 M
b10000 9
b10000 N
b10000 Q
b10000 R
b1101010 7
b1101010 @
b1101010 T
1!
#320
0!
#325
b0 '
b0 a
b0 c
b11000 8
b11000 P
b11000 i
b10101000000000000010000 +
b10101000000000000010000 j
b10101000000000000010000 m
0&
0=
0,
0.
b100 <
b100 ?
b100 E
bx ;
bx A
bx _
bx b
b10101 $
b10101 Y
b10101 g
b11000 *
b11000 H
b11000 h
b1000101010000000000000100 k
b100 B
b101 K
b100 2
b100 F
b100 [
b100 ]
b100 Z
b100 6
b100 G
b100 U
b100 `
b10101 W
bx 7
bx @
bx T
b1000 V
b10101 e
b101000 )
b101000 I
b101000 ^
b11000 (
b11000 J
b11000 S
b11000 \
b10101000101010000000000000100 0
b10101000101010000000000000100 M
b10100 9
b10100 N
b10100 Q
b10100 R
1!
#330
0!
#335
b1 <
b1 ?
b1 E
1&
1=
b101 %
b101 X
b101 d
b11100 8
b11100 P
b11100 i
b1110011000000000000000100 +
b1110011000000000000000100 j
b1110011000000000000000100 m
b101 ;
b101 A
b101 _
b101 b
b10011 $
b10011 Y
b10011 g
b11100 *
b11100 H
b11100 h
b10011100110000000000000001 k
b1 B
b1000 K
b1 2
b1 F
b1 [
b1 ]
b1 Z
b10011 W
b100 7
b100 @
b100 T
b10011 V
b10011 e
b100000 )
b100000 I
b100000 ^
b11100 (
b11100 J
b11100 S
b11100 \
b100010011100110000000000000001 0
b100010011100110000000000000001 M
b11000 9
b11000 N
b11000 Q
b11000 R
1!
#340
0!
#345
1/
b0 <
b0 ?
b0 E
b0 %
b0 X
b0 d
b100 8
b100 P
b100 i
b100 +
b100 j
b100 m
0&
0=
b0 $
b0 Y
b0 g
b0 ;
b0 A
b0 _
b0 b
b100000 *
b100000 H
b100000 h
b1 k
b10 K
b0 W
b0 V
b0 e
b0 7
b0 @
b0 T
b0 6
b0 G
b0 U
b0 `
b100100 )
b100100 I
b100100 ^
b100000 (
b100000 J
b100000 S
b100000 \
b1000000000000000000000000001 0
b1000000000000000000000000001 M
b11100 9
b11100 N
b11100 Q
b11100 R
1!
#350
0!
